17:43:10.932 INFO [GridLauncherV3.parse] - Selenium server version: 3.141.59, revision: e82be7d358
17:43:11.074 INFO [GridLauncherV3.lambda$buildLaunchers$3] - Launching a standalone Selenium Server on port 4444
2018-12-04 17:43:11.193:INFO::main: Logging initialized @696ms to org.seleniumhq.jetty9.util.log.StdErrLog
17:43:11.753 INFO [WebDriverServlet.<init>] - Initialising WebDriverServlet
17:43:11.909 INFO [SeleniumServer.boot] - Selenium Server is up and running on port 4444
17:43:12.317 INFO [ActiveSessionFactory.apply] - Capabilities are: {
  "acceptSslCerts": true,
  "browserName": "chrome",
  "javascriptEnabled": true,
  "name": "Test Login"
}
17:43:12.320 INFO [ActiveSessionFactory.lambda$apply$11] - Matched factory org.openqa.selenium.grid.session.remote.ServicedSession$Factory (provider: org.openqa.selenium.chrome.ChromeDriverService)
Starting ChromeDriver 2.44.609545 (c2f88692e98ce7233d2df7c724465ecacfe74df5) on port 26482
Only local connections are allowed.
17:43:14.446 INFO [ProtocolHandshake.createSession] - Detected dialect: OSS
17:43:15.103 INFO [RemoteSession$Factory.lambda$performHandshake$0] - Started new session e8fc53a34515ee87bc5500d9a38b8850 (org.openqa.selenium.chrome.ChromeDriverService)
17:43:20.374 INFO [ActiveSessions$1.onStop] - Removing session e8fc53a34515ee87bc5500d9a38b8850 (org.openqa.selenium.chrome.ChromeDriverService)
17:43:20.439 INFO [ActiveSessionFactory.apply] - Capabilities are: {
  "acceptSslCerts": true,
  "browserName": "chrome",
  "javascriptEnabled": true,
  "name": "Test Login"
}
17:43:20.440 INFO [ActiveSessionFactory.lambda$apply$11] - Matched factory org.openqa.selenium.grid.session.remote.ServicedSession$Factory (provider: org.openqa.selenium.chrome.ChromeDriverService)
Starting ChromeDriver 2.44.609545 (c2f88692e98ce7233d2df7c724465ecacfe74df5) on port 14300
Only local connections are allowed.
17:43:22.050 INFO [ProtocolHandshake.createSession] - Detected dialect: OSS
17:43:22.140 INFO [RemoteSession$Factory.lambda$performHandshake$0] - Started new session e74c45d8035555fd05120b77b6a88105 (org.openqa.selenium.chrome.ChromeDriverService)
17:43:27.720 INFO [ActiveSessions$1.onStop] - Removing session e74c45d8035555fd05120b77b6a88105 (org.openqa.selenium.chrome.ChromeDriverService)
17:43:27.772 INFO [ActiveSessionFactory.apply] - Capabilities are: {
  "acceptSslCerts": true,
  "browserName": "chrome",
  "javascriptEnabled": true,
  "name": "Test Login"
}
17:43:27.773 INFO [ActiveSessionFactory.lambda$apply$11] - Matched factory org.openqa.selenium.grid.session.remote.ServicedSession$Factory (provider: org.openqa.selenium.chrome.ChromeDriverService)
Starting ChromeDriver 2.44.609545 (c2f88692e98ce7233d2df7c724465ecacfe74df5) on port 20474
Only local connections are allowed.
17:43:29.212 INFO [ProtocolHandshake.createSession] - Detected dialect: OSS
17:43:29.329 INFO [RemoteSession$Factory.lambda$performHandshake$0] - Started new session 8150437ce12fa176fffe27b7e2dd510c (org.openqa.selenium.chrome.ChromeDriverService)
17:43:34.108 INFO [ActiveSessions$1.onStop] - Removing session 8150437ce12fa176fffe27b7e2dd510c (org.openqa.selenium.chrome.ChromeDriverService)
17:43:34.142 INFO [ActiveSessionFactory.apply] - Capabilities are: {
  "acceptSslCerts": true,
  "browserName": "chrome",
  "javascriptEnabled": true,
  "name": "Test Login"
}
17:43:34.142 INFO [ActiveSessionFactory.lambda$apply$11] - Matched factory org.openqa.selenium.grid.session.remote.ServicedSession$Factory (provider: org.openqa.selenium.chrome.ChromeDriverService)
Starting ChromeDriver 2.44.609545 (c2f88692e98ce7233d2df7c724465ecacfe74df5) on port 16612
Only local connections are allowed.
17:43:35.605 INFO [ProtocolHandshake.createSession] - Detected dialect: OSS
17:43:35.748 INFO [RemoteSession$Factory.lambda$performHandshake$0] - Started new session 06fde1b42a223ec47f2619f3d67c7731 (org.openqa.selenium.chrome.ChromeDriverService)
17:43:43.165 INFO [ActiveSessions$1.onStop] - Removing session 06fde1b42a223ec47f2619f3d67c7731 (org.openqa.selenium.chrome.ChromeDriverService)
17:43:43.207 INFO [ActiveSessionFactory.apply] - Capabilities are: {
  "acceptSslCerts": true,
  "browserName": "chrome",
  "javascriptEnabled": true,
  "name": "Test Login"
}
17:43:43.208 INFO [ActiveSessionFactory.lambda$apply$11] - Matched factory org.openqa.selenium.grid.session.remote.ServicedSession$Factory (provider: org.openqa.selenium.chrome.ChromeDriverService)
Starting ChromeDriver 2.44.609545 (c2f88692e98ce7233d2df7c724465ecacfe74df5) on port 6931
Only local connections are allowed.
17:43:44.821 INFO [ProtocolHandshake.createSession] - Detected dialect: OSS
17:43:44.885 INFO [RemoteSession$Factory.lambda$performHandshake$0] - Started new session fb313682b49b944e04236028fb1f9705 (org.openqa.selenium.chrome.ChromeDriverService)
17:43:53.001 INFO [ActiveSessions$1.onStop] - Removing session fb313682b49b944e04236028fb1f9705 (org.openqa.selenium.chrome.ChromeDriverService)
17:43:53.074 INFO [ActiveSessionFactory.apply] - Capabilities are: {
  "acceptSslCerts": true,
  "browserName": "chrome",
  "javascriptEnabled": true,
  "name": "Test Login"
}
17:43:53.081 INFO [ActiveSessionFactory.lambda$apply$11] - Matched factory org.openqa.selenium.grid.session.remote.ServicedSession$Factory (provider: org.openqa.selenium.chrome.ChromeDriverService)
Starting ChromeDriver 2.44.609545 (c2f88692e98ce7233d2df7c724465ecacfe74df5) on port 7701
Only local connections are allowed.
17:43:54.669 INFO [ProtocolHandshake.createSession] - Detected dialect: OSS
17:43:54.717 INFO [RemoteSession$Factory.lambda$performHandshake$0] - Started new session 3f2b64a94cd0c0cb1a40bf86ff74bb74 (org.openqa.selenium.chrome.ChromeDriverService)
[1543941843.744][SEVERE]: Unable to receive message from renderer
17:44:09.417 INFO [ActiveSessions$1.onStop] - Removing session 3f2b64a94cd0c0cb1a40bf86ff74bb74 (org.openqa.selenium.chrome.ChromeDriverService)
17:44:09.479 INFO [ActiveSessionFactory.apply] - Capabilities are: {
  "acceptSslCerts": true,
  "browserName": "chrome",
  "javascriptEnabled": true,
  "name": "Test Login"
}
17:44:09.479 INFO [ActiveSessionFactory.lambda$apply$11] - Matched factory org.openqa.selenium.grid.session.remote.ServicedSession$Factory (provider: org.openqa.selenium.chrome.ChromeDriverService)
Starting ChromeDriver 2.44.609545 (c2f88692e98ce7233d2df7c724465ecacfe74df5) on port 41955
Only local connections are allowed.
17:44:11.245 INFO [ProtocolHandshake.createSession] - Detected dialect: OSS
17:44:11.279 INFO [RemoteSession$Factory.lambda$performHandshake$0] - Started new session 0bf06d29a6f22da693a17d93ffe03e3c (org.openqa.selenium.chrome.ChromeDriverService)
17:44:16.045 INFO [ActiveSessions$1.onStop] - Removing session 0bf06d29a6f22da693a17d93ffe03e3c (org.openqa.selenium.chrome.ChromeDriverService)
17:44:16.080 INFO [ActiveSessionFactory.apply] - Capabilities are: {
  "acceptSslCerts": true,
  "browserName": "chrome",
  "javascriptEnabled": true,
  "name": "Test Login"
}
17:44:16.081 INFO [ActiveSessionFactory.lambda$apply$11] - Matched factory org.openqa.selenium.grid.session.remote.ServicedSession$Factory (provider: org.openqa.selenium.chrome.ChromeDriverService)
Starting ChromeDriver 2.44.609545 (c2f88692e98ce7233d2df7c724465ecacfe74df5) on port 32583
Only local connections are allowed.
17:44:17.687 INFO [ProtocolHandshake.createSession] - Detected dialect: OSS
17:44:17.727 INFO [RemoteSession$Factory.lambda$performHandshake$0] - Started new session ef1348b84549934c457e0fa8fa34bd76 (org.openqa.selenium.chrome.ChromeDriverService)
17:44:36.331 INFO [ActiveSessions$1.onStop] - Removing session ef1348b84549934c457e0fa8fa34bd76 (org.openqa.selenium.chrome.ChromeDriverService)
17:44:36.399 INFO [ActiveSessionFactory.apply] - Capabilities are: {
  "acceptSslCerts": true,
  "browserName": "chrome",
  "javascriptEnabled": true,
  "name": "Test Login"
}
17:44:36.400 INFO [ActiveSessionFactory.lambda$apply$11] - Matched factory org.openqa.selenium.grid.session.remote.ServicedSession$Factory (provider: org.openqa.selenium.chrome.ChromeDriverService)
Starting ChromeDriver 2.44.609545 (c2f88692e98ce7233d2df7c724465ecacfe74df5) on port 15896
Only local connections are allowed.
17:44:38.114 INFO [ProtocolHandshake.createSession] - Detected dialect: OSS
17:44:38.151 INFO [RemoteSession$Factory.lambda$performHandshake$0] - Started new session 7df1f38280f80ed602fcc06142fd579a (org.openqa.selenium.chrome.ChromeDriverService)
17:44:44.427 INFO [ActiveSessions$1.onStop] - Removing session 7df1f38280f80ed602fcc06142fd579a (org.openqa.selenium.chrome.ChromeDriverService)
17:44:44.458 INFO [ActiveSessionFactory.apply] - Capabilities are: {
  "acceptSslCerts": true,
  "browserName": "chrome",
  "javascriptEnabled": true,
  "name": "Test Login"
}
17:44:44.459 INFO [ActiveSessionFactory.lambda$apply$11] - Matched factory org.openqa.selenium.grid.session.remote.ServicedSession$Factory (provider: org.openqa.selenium.chrome.ChromeDriverService)
Starting ChromeDriver 2.44.609545 (c2f88692e98ce7233d2df7c724465ecacfe74df5) on port 27529
Only local connections are allowed.
17:44:46.054 INFO [ProtocolHandshake.createSession] - Detected dialect: OSS
17:44:46.091 INFO [RemoteSession$Factory.lambda$performHandshake$0] - Started new session 49aec3152f6fddc980ac929e117ae2f6 (org.openqa.selenium.chrome.ChromeDriverService)
17:44:53.870 INFO [ActiveSessions$1.onStop] - Removing session 49aec3152f6fddc980ac929e117ae2f6 (org.openqa.selenium.chrome.ChromeDriverService)
17:44:53.900 INFO [ActiveSessionFactory.apply] - Capabilities are: {
  "acceptSslCerts": true,
  "browserName": "chrome",
  "javascriptEnabled": true,
  "name": "Test Login"
}
17:44:53.901 INFO [ActiveSessionFactory.lambda$apply$11] - Matched factory org.openqa.selenium.grid.session.remote.ServicedSession$Factory (provider: org.openqa.selenium.chrome.ChromeDriverService)
Starting ChromeDriver 2.44.609545 (c2f88692e98ce7233d2df7c724465ecacfe74df5) on port 11054
Only local connections are allowed.
17:44:55.535 INFO [ProtocolHandshake.createSession] - Detected dialect: OSS
17:44:55.568 INFO [RemoteSession$Factory.lambda$performHandshake$0] - Started new session 51f54a1fc53c408fe0db49cac283f2c7 (org.openqa.selenium.chrome.ChromeDriverService)
17:45:03.309 INFO [ActiveSessions$1.onStop] - Removing session 51f54a1fc53c408fe0db49cac283f2c7 (org.openqa.selenium.chrome.ChromeDriverService)
17:45:03.364 INFO [ActiveSessionFactory.apply] - Capabilities are: {
  "acceptSslCerts": true,
  "browserName": "chrome",
  "javascriptEnabled": true,
  "name": "Test Login"
}
17:45:03.365 INFO [ActiveSessionFactory.lambda$apply$11] - Matched factory org.openqa.selenium.grid.session.remote.ServicedSession$Factory (provider: org.openqa.selenium.chrome.ChromeDriverService)
Starting ChromeDriver 2.44.609545 (c2f88692e98ce7233d2df7c724465ecacfe74df5) on port 28830
Only local connections are allowed.
17:45:05.129 INFO [ProtocolHandshake.createSession] - Detected dialect: OSS
17:45:05.162 INFO [RemoteSession$Factory.lambda$performHandshake$0] - Started new session 58284cc85676730dbef77ada9aa39f9c (org.openqa.selenium.chrome.ChromeDriverService)
17:45:12.189 INFO [ActiveSessions$1.onStop] - Removing session 58284cc85676730dbef77ada9aa39f9c (org.openqa.selenium.chrome.ChromeDriverService)
17:45:12.222 INFO [ActiveSessionFactory.apply] - Capabilities are: {
  "acceptSslCerts": true,
  "browserName": "chrome",
  "javascriptEnabled": true,
  "name": "Test Login"
}
17:45:12.222 INFO [ActiveSessionFactory.lambda$apply$11] - Matched factory org.openqa.selenium.grid.session.remote.ServicedSession$Factory (provider: org.openqa.selenium.chrome.ChromeDriverService)
Starting ChromeDriver 2.44.609545 (c2f88692e98ce7233d2df7c724465ecacfe74df5) on port 28982
Only local connections are allowed.
17:45:13.767 INFO [ProtocolHandshake.createSession] - Detected dialect: OSS
17:45:13.821 INFO [RemoteSession$Factory.lambda$performHandshake$0] - Started new session e4109257b5cac649e3728f715f960ed1 (org.openqa.selenium.chrome.ChromeDriverService)
17:45:19.778 INFO [ActiveSessions$1.onStop] - Removing session e4109257b5cac649e3728f715f960ed1 (org.openqa.selenium.chrome.ChromeDriverService)
